{
  "profiles": {
    "IIS Express": {
      "commandName": "IISExpress",
      "launchBrowser": true,
      "environmentVariables": {
        "ASPNETCORE_ENVIRONMENT": "Development"
      }
    },
    "gateway_csharp_sample_code": {
      "commandName": "Project",
      "launchBrowser": true,
      "applicationUrl": "http://localhost:5000/",
      "environmentVariables": {
        "ASPNETCORE_ENVIRONMENT": "Development",
        "GATEWAY_MERCHANT_ID": "TEST168900001290",
        "GATEWAY_API_PASSWORD": "812207a3a8a3b0c0a23875f6cc745645",
        "GATEWAY_BASE_URL": "https://test-gateway.mastercard.com",
        "GATEWAY_CURRENCY": "SGD",
        "GATEWAY_VERSION": "45"
      }
    },
    "gateway-csharp-sample-code": {
      "commandName": "Project",
      "launchBrowser": true,
      "applicationUrl": "http://localhost:52380",
      "environmentVariables": {
        "ASPNETCORE_ENVIRONMENT": "Development"
      }
    }
  }
}